…
``` r
raw_2021_budget_2021
```

    ## # A tibble: 76,584 x 13
    ##    Id    Name  Kind  Data.Column1 Data.Column2 Data.Column3 Data.Column4
    ##    <chr> <chr> <chr> <chr>        <chr>        <chr>        <chr>       
    ##  1 Tabl~ Tabl~ Table NO           CODE         "MDA"        PERSONNEL   
    ##  2 Tabl~ Tabl~ Table 1            0111         "PRESIDENCY" 34,389,345,~
    ##  3 Tabl~ Tabl~ Table 2            0112         "NATIONAL A~ 128,000,000~
    ##  4 Tabl~ Tabl~ Table 3            0116         "MINISTRY O~ 774,853,568~
    ##  5 Tabl~ Tabl~ Table 4            0119         "MINISTRY O~ 51,791,743,~
    ##  6 Tabl~ Tabl~ Table 5            0123         "FEDERAL MI~ 48,749,617,~
    ##  7 Tabl~ Tabl~ Table 6            0124         "MINISTRY O~ 200,808,195~
    ##  8 Tabl~ Tabl~ Table 7            0125         "OFFICE OF ~ 4,811,663,0~
    ##  9 Tabl~ Tabl~ Table <NA>         <NA>         "THE FEDERA~ <NA>        
    ## 10 Tabl~ Tabl~ Table 8            0140         "AUDITOR GE~ 2,436,674,3~
    ## # ... with 76,574 more rows, and 6 more variables: Data.Column5 <chr>,
    ## #   Data.Column6 <chr>, Data.Column7 <chr>, Data.Column8 <chr>,
    ## #   Data.Column9 <chr>, Data.Column10 <chr>
…
When extracting the tables form Excel, the `Id`, `Name` and `Kind`
Columns were automatically created to be used for identifying the table
in the pdf that was converted to excel. That affors us an advatage.
Since the Id column is serial, we can use it to sort (`arrange()`) our
table in such a way that it matches the order of tables in the original
document. And to double check, we also add the column `Data.Column1` to
the sort criteria.

``` r
data__2021_start %>% arrange(Id, Data.Column1)
```

    ## # A tibble: 76,584 x 13
    ##    Id    Name  Kind  Data.Column1 Data.Column2 Data.Column3 Data.Column4
    ##    <chr> <chr> <chr> <chr>        <chr>        <chr>        <chr>       
    ##  1 Tabl~ Tabl~ Table 1            0111         "PRESIDENCY" 34,389,345,~
    ##  2 Tabl~ Tabl~ Table 1            021          "MAIN ENVEL~ <NA>        
    ##  3 Tabl~ Tabl~ Table 10           0147         "FEDERAL CI~ 744,546,830 
    ##  4 Tabl~ Tabl~ Table 11           0148         "INDEPENDEN~ 40,000,000,~
    ##  5 Tabl~ Tabl~ Table 12           0149         "FEDERAL CH~ 2,688,616,5~
    ##  6 Tabl~ Tabl~ Table 13           0155         "FEDERAL MI~ 420,604,423~
    ##  7 Tabl~ Tabl~ Table 14           0156         "FEDERAL MI~ 21,127,073,~
    ##  8 Tabl~ Tabl~ Table 15           0157         "NATIONAL S~ 112,446,153~
    ##  9 Tabl~ Tabl~ Table 16           0158         "CODE OF CO~ 548,758,100 
    ## 10 Tabl~ Tabl~ Table 17           0159         "INFRASTRUC~ 1,013,246,4~
    ## # ... with 76,574 more rows, and 6 more variables: Data.Column5 <chr>,
    ## #   Data.Column6 <chr>, Data.Column7 <chr>, Data.Column8 <chr>,
    ## #   Data.Column9 <chr>, Data.Column10 <chr>
…
